laboratorium_4/debouncer/debouncer.vcd
$date
	Thu Apr 25 09:34:48 2024
$end
$version
	Icarus Verilog
$end
$timescale
	1ps
$end
$scope module test_debouncer $end
$scope module UUT $end
$var wire 1 ! ce $end
$var wire 1 " clk $end
$var wire 1 # clr $end
$var wire 1 $ key_up $end
$var wire 1 % s_in $end
$var wire 1 & key_en $end
$var parameter 32 ' l_bit $end
$var reg 4 ( p_out [3:0] $end
$upscope $end
$upscope $end
$enddefinitions $end
$comment Show the parameter values. $end
$dumpall
b100 '
$end
#0
$dumpvars
bx (
x&
0%
0$
1#
0"
0!
$end
#500
0&
b0 (
1"
#1000
0"
#1500
1"
#2000
0"
#2500
1"
#3000
0"
#3500
1"
#4000
0"
#4500
1"
#5000
0"
0#
#5500
1"
#6000
0"
#6500
1"
#7000
0"
#7500
1"
#8000
0"
#8500
1"
#9000
0"
#9500
1"
#10000
0"
1%
#10500
1"
#11000
0"
#11500
1"
#12000
0"
#12500
1"
#13000
0"
#13500
1"
#14000
0"
#14500
1"
#15000
0"
0%
1!
#15500
1"
#16000
0"
#16500
1"
#17000
0"
#17500
1"
#18000
0"
#18500
1"
#19000
0"
#19500
1"
#20000
0"
1%
#20500
b1 (
1"
#21000
0"
#21500
b11 (
1"
#22000
0"
#22500
1$
b111 (
1"
#23000
0"
#23500
0$
1&
b1111 (
1"
#24000
0"
#24500
1"
#25000
0"
#25500
1"
#26000
0"
#26500
1"
#27000
0"
#27500
1"
#28000
0"
#28500
1"
#29000
0"
#29500
1"
#30000
0"
0%
#30500
0&
b1110 (
1"
#31000
0"
#31500
b1100 (
1"
#32000
0"
1%
#32500
b1001 (
1"
#33000
0"
#33500
b11 (
1"
#34000
0"
0%
#34500
b110 (
1"
#35000
0"
#35500
b1100 (
1"
#36000
0"
#36500
b1000 (
1"
#37000
0"
1%
#37500
b1 (
1"
#38000
0"
#38500
b11 (
1"
#39000
0"
#39500
1$
b111 (
1"
#40000
0"
0%
#40500
0$
b1110 (
1"
#41000
0"
#41500
b1100 (
1"
#42000
0"
#42500
b1000 (
1"
#43000
0"
#43500
b0 (
1"
#44000
0"
1%
#44500
b1 (
1"
#45000
0"
#45500
b11 (
1"
#46000
0"
#46500
1$
b111 (
1"
#47000
0"
#47500
0$
1&
b1111 (
1"
#48000
0"
0%
#48500
0&
b1110 (
1"
#49000
0"
#49500
b1100 (
1"
#50000
0"
#50500
b1000 (
1"
#51000
0"
#51500
b0 (
1"
#52000
0"
#52500
1"
#53000
0"
1%
#53500
b1 (
1"
#54000
0"
#54500
b11 (
1"
#55000
0"
#55500
1$
b111 (
1"
#56000
0"
#56500
0$
1&
b1111 (
1"
#57000
0"
#57500
1"
#58000
0"
0%
#58500
0&
b1110 (
1"
#59000
0"
#59500
b1100 (
1"
#60000
0"
#60500
b1000 (
1"
#61000
0"
#61500
b0 (
1"
